152457,42.725,-118.454,5,ORK08,2006-10-05 19:51:34
152443,44.5201,-118.668,5,ORH08,2006-08-31 18:15:20
152459,42.0118,-119.33,5,ORL07,2006-09-30 20:38:53
152453,43.35,-118.472,5,ORJ08,2006-10-07 18:55:01
152460,42.1944,-118.339,5,ORL08,2006-10-01 19:58:49
152444,44.6615,-117.726,5,ORH09,2006-09-16 20:32:18
154620,45.7935,-118.742,5,ORF08,2006-09-04 17:43:59
152452,43.3697,-119.311,5,ORJ07,2006-08-13 20:50:04
152456,42.6908,-119.253,5,ORK07,2006-09-27 18:46:31
152449,44.0141,-117.799,5,ORI09,2006-09-17 19:45:38
152448,43.9091,-118.548,5,ORI08,2006-09-28 17:57:51
154631,43.9053,-120.232,5,ORI06,2006-08-09 21:09:12
152447,44.0751,-119.51,5,ORI07,2006-08-10 20:23:24
152440,44.6475,-121.204,5,ORH05,2006-08-08 19:59:37
152445,44.1176,-121.379,5,ORI05,2006-08-03 19:39:27
152436,45.2761,-119.634,5,ORG07,2006-08-15 21:43:22
152451,43.2813,-120.094,5,ORJ06,2006-09-24 17:50:40
152438,45.3312,-117.832,5,ORG09,2006-09-19 22:18:57
152439,45.3317,-117.19,5,ORG10,2006-09-07 21:31:12
154629,45.7086,-117.903,5,ORF09,2006-09-10 21:58:05
152437,45.2402,-118.961,5,ORG08,2006-09-03 22:35:27
152455,42.7916,-120.245,5,ORK06,2006-09-23 20:13:37
152450,43.2581,-121.176,5,ORJ05,2006-08-12 21:03:24
152454,43.3625,-117.745,5,ORJ09,2006-10-10 21:38:36
154627,42.695,-117.73,5,ORK09,2006-10-09 19:55:35
152442,44.5992,-119.569,5,ORH07,2006-08-11 21:36:49
152435,45.24,-120.638,5,ORG06,2006-08-05 23:52:54
152441,44.7423,-120.295,5,ORH06,2006-08-06 23:53:45
1044109,39.616142,-107.6113,4,COP21,2011-08-10 18:06:17
1043261,39.01141,-108.3451,4,COQ20,2011-08-06 18:55:12
152434,45.9802,-117.228,4,ORF10,2006-09-06 19:39:10
154633,40.8996,-122.506,4,CAN03,2011-06-10 19:09:51
