[
{
"Comment": null, 
"DOI": null, 
"Title": "Shear wave splitting and subcontinental mantle deformation", 
"Journal": "J. Geophys. Res.", 
"Authors": "Silver, P.G., Chan, W.W.", 
"Pages": "16429-16454", 
"No": 96, 
"Tag": "Silver1991", 
"Link": null, 
"Year": 1991, 
"id": 0
}, 
{
"Comment": null, 
"DOI": "10.1038/358144a0", 
"Title": "Shear-wave splitting and small-scale convection in the continental upper mantle", 
"Journal": "Nature", 
"Authors": "Makeyeva, L.I., Vinnik, L.P., Roecker, S.W.", 
"Pages": "144-147", 
"No": 358, 
"Tag": "Makeyeva1992", 
"Link": "http://www.nature.com/nature/journal/v358/n6382/abs/358144a0.html", 
"Year": 1992, 
"id": 1
}, 
{
"Comment": null, 
"DOI": null, 
"Title": "Tectonics of western North America: a teleseismic view", 
"Journal": "PhD Thesis, Stanford Univ", 
"Authors": "Ruppert, S.", 
"Pages": "216pp", 
"No": null, 
"Tag": "Ruppert1992", 
"Link": null, 
"Year": 1992, 
"id": 2
}, 
{
"Comment": null, 
"DOI": null, 
"Title": "Shear-wave splitting in the Rio Grande Rift", 
"Journal": "Geophys. Res. Lett.", 
"Authors": "Sandvol, E.,  Ni, J., Ozalaybey, S., Schue, J.", 
"Pages": "2337-2340", 
"No": 19, 
"Tag": "Sandvol1992", 
"Link": "http://adsabs.harvard.edu/abs/1992GeoRL..19.2337S", 
"Year": 1992, 
"id": 3
}, 
{
"Comment": null, 
"DOI": null, 
"Title": "Global Patterns of azimuthal anisotropy and deformation in the continental mantle", 
"Journal": "Geoph. J. Int.", 
"Authors": "Vinnik, L.P., Makeyeva, L.I., Milev, A., Usenko, Y.", 
"Pages": "433-447", 
"No": 111, 
"Tag": "Vinnik1992", 
"Link": null, 
"Year": 1992, 
"id": 4
}, 
{
"Comment": null, 
"DOI": "10.1016/0031-9201(93)90153-Z", 
"Title": "Teleseismic shear-wave splitting and deformations in Central Europe", 
"Journal": "Phys. Earth Planet. Int.", 
"Authors": "Bormann, P., Burghardt, P.-T., Makeyeva, L.I., Vinnik, L.P.", 
"Pages": "157-166", 
"No": 78, 
"Tag": "Bormann1993", 
"Link": "http://adsabs.harvard.edu/abs/1993PEPI...78..157B", 
"Year": 1993, 
"id": 5
}, 
{
"Comment": null, 
"DOI": "10.1016/0031-9201(93)90156-4", 
"Title": "Mantle deformation and tectonics: constraints from seismic anisotropy in western United States", 
"Journal": "Phys. Earth Planet. Int.", 
"Authors": "Savage M.K., Silver P.G.", 
"Pages": "207-227", 
"No": 78, 
"Tag": "Savage1993", 
"Link": "http://adsabs.harvard.edu/abs/1993PEPI...78..207S", 
"Year": 1993, 
"id": 6
}, 
{
"Comment": null, 
"DOI": null, 
"Title": "Constraints on mantle anisotropy beneath Precambrian North America from a transportable teleseimic experiment", 
"Journal": "Geophys. Res. Lett", 
"Authors": "Silver P.G., Kaneshima S.", 
"Pages": "1127-1130", 
"No": 20, 
"Tag": "Silver1993", 
"Link": null, 
"Year": 1993, 
"id": 7
}, 
{
"Comment": null, 
"DOI": "10.1038/371149a0", 
"Title": "Seismic anisotropy and mantle flow beneath the Baikal rift zone", 
"Journal": "Nature", 
"Authors": "Gao, S., Davis, P.M., Liu, H., Slack, P.D., Zorin, Y.A., Mordvinova, V.V., Kozhevnikov, V.M., Meyer, R.P.", 
"Pages": "149-151", 
"No": 371, 
"Tag": "Gao1994", 
"Link": "http://www.nature.com/nature/journal/v371/n6493/abs/371149a0.html", 
"Year": 1994, 
"id": 8
}, 
{
"Comment": null, 
"DOI": null, 
"Title": "Shear wave splitting variations over short spatial scales on continents", 
"Journal": "Geophys. J. Int.", 
"Authors": "Helffrich, G., Silver, P.G., Given, H.", 
"Pages": "561-573", 
"No": 119, 
"Tag": "Helffrich1994", 
"Link": null, 
"Year": 1994, 
"id": 9
}, 
{
"Comment": null, 
"DOI": null, 
"Title": "Shear wave anisotropy beneath the Tibetan Plateau", 
"Journal": "J. Geophys. Res.", 
"Authors": "McNamara, D.E., Owens, T.J., Silver, P.G., Wu, F.T.", 
"Pages": "13655-13665", 
"No": 99, 
"Tag": "McNamara1994", 
"Link": null, 
"Year": 1994, 
"id": 10
}, 
{
"Comment": null, 
"DOI": null, 
"Title": "Trench-parallel flow beneath the Nazca plate from seismic anisotropy", 
"Journal": "Science", 
"Authors": "Russo, R.M., Silver, P.G.", 
"Pages": "1105-1111", 
"No": 263, 
"Tag": "Russo1994", 
"Link": null, 
"Year": 1994, 
"id": 11
}, 
{
"Comment": "Digitized analog data", 
"DOI": null, 
"Title": "Mapping seismic azimuthal anisotropy in the United States from LRSM short period data", 
"Journal": "Eos, Transactions, AGU", 
"Authors": "Sandvol, E., Ni, J.", 
"Pages": 481, 
"No": 75, 
"Tag": "Sandvol1994", 
"Link": null, 
"Year": 1994, 
"id": 12
}, 
{
"Comment": " ", 
"DOI": null, 
"Title": "Shear wave splitting in the records of the German Regional Seismic Network", 
"Journal": "Geophys. Res. Lett.", 
"Authors": "Vinnik, L.P., Krishna, V.G., Kind, R., Bormann, P., Stammler, K.", 
"Pages": "457-460", 
"No": "21(6)", 
"Tag": "Vinnik1994", 
"Link": "http://www.agu.org/pubs/crossref/1994/94GL00396.shtml", 
"Year": 1994, 
"id": 13
}, 
{
"Comment": null, 
"DOI": null, 
"Title": "Anisotropy beneath the Pyrenees Range from teleseismic shear wave splitting: results from a test experiment", 
"Journal": "Geophys. Res. Lett.", 
"Authors": "Barruol, G., Souriau, A.", 
"Pages": "493-496", 
"No": 22, 
"Tag": "Barruol1995", 
"Link": null, 
"Year": 1995, 
"id": 14
}, 
{
"Comment": null, 
"DOI": null, 
"Title": "Variations in SKS splitting across western Canada", 
"Journal": "Geophys. Res. Lett", 
"Authors": "Bostock, M. G., Cassidy, J.F.", 
"Pages": "05-Aug", 
"No": 22, 
"Tag": "Bostock1995", 
"Link": null, 
"Year": 1995, 
"id": 15
}, 
{
"Comment": null, 
"DOI": null, 
"Title": "Lithospheric deformation inferred from teleseismic shear wave splitting ovservations in the UK", 
"Journal": "J. Geophys. Res.", 
"Authors": "Helffrich, G.", 
"Pages": "18195-18204", 
"No": 100, 
"Tag": "Helffrich1995", 
"Link": null, 
"Year": 1995, 
"id": 16
}, 
{
"Comment": null, 
"DOI": null, 
"Title": "Anisotropic loci in the mantle beneath central Peru", 
"Journal": "Phys. Earth Planet. Int.", 
"Authors": "Kaneshima, S., Silver, P.G.", 
"Pages": "257-272", 
"No": 88, 
"Tag": "Kaneshima1995", 
"Link": null, 
"Year": 1995, 
"id": 17
}, 
{
"Comment": null, 
"DOI": null, 
"Title": "Laboratory and seismological observations of lower mantle isotropy", 
"Journal": "Geophys. Res. Lett.", 
"Authors": "Meade, C., Silver, P.G., et al.", 
"Pages": "1293-1296", 
"No": 22, 
"Tag": "Meade1995", 
"Link": null, 
"Year": 1995, 
"id": 18
}, 
{
"Comment": null, 
"DOI": null, 
"Title": "Shear-wave splitting beneath western United States in relation to plate tectonics", 
"Journal": "J. Geophys. Res.", 
"Authors": "\u00f7zalaybey, S., Savage, M.K.", 
"Pages": "18135-18149", 
"No": 100, 
"Tag": "Ozalaybey1995", 
"Link": null, 
"Year": 1995, 
"id": 19
}, 
{
"Comment": null, 
"DOI": null, 
"Title": "Recent deformations of the deep continental roots in southern Africa", 
"Journal": "Nature", 
"Authors": "Vinnik, L.P., Green, R.W.E., Nicolaysen, L.O.", 
"Pages": "50-52", 
"No": 375, 
"Tag": "Vinnik1995", 
"Link": null, 
"Year": 1995, 
"id": 20
}, 
{
"Comment": null, 
"DOI": null, 
"Title": "Mantle anisotropy beneath northwest Pacific subduction zones", 
"Journal": "J. Geophys. Res.", 
"Authors": "Fouch, M.J., Fischer, K.M", 
"Pages": "15987-16002", 
"No": 101, 
"Tag": "Fouch1996", 
"Link": null, 
"Year": 1996, 
"id": 21
}, 
{
"Comment": null, 
"DOI": null, 
"Title": "Tectonic implications of S-wave anisotropy beneath SE Brazil", 
"Journal": "Geophys. J. Int.", 
"Authors": "James, D.E., Assumpcao, M.", 
"Pages": "01-Oct", 
"No": 126, 
"Tag": "James1996", 
"Link": null, 
"Year": 1996, 
"id": 22
}, 
{
"Comment": null, 
"DOI": null, 
"Title": "Seismic anisotropy beneath the northern Apennines", 
"Journal": "Geophys. Res. Let.", 
"Authors": "Margheriti, L., Nostro, C., Cocco, M., Amato, A.", 
"Pages": "2721-2724", 
"No": "v23/20", 
"Tag": "Margheriti1996", 
"Link": null, 
"Year": 1996, 
"id": 23
}, 
{
"Comment": null, 
"DOI": null, 
"Title": "Cordillera orogenesis, mantle dynamics, and the Wilson Cycle", 
"Journal": "Geology", 
"Authors": "Russo, R.M., Silver, P.G.", 
"Pages": "511-514", 
"No": 24, 
"Tag": "Russo1996", 
"Link": null, 
"Year": 1996, 
"id": 24
}, 
{
"Comment": null, 
"DOI": null, 
"Title": "Shear-wave splitting in northeast Venezuela, Trinidad and the Eastern Caribbean", 
"Journal": "Phys. Earth Planet. Int.", 
"Authors": "Russo, R.M., Silver, P.G., Franke, M., Ambeh, W.B., James, D.E.,", 
"Pages": "251-275", 
"No": 95, 
"Tag": "Russo1996", 
"Link": null, 
"Year": 1996, 
"id": 25
}, 
{
"Comment": null, 
"DOI": null, 
"Title": "Shear wave splitting across the Rocky Mountain Front", 
"Journal": "Geophys. Res. Lett.", 
"Authors": "Savage, M.K., Sheehan, A.F., Lerner-Lam, A.", 
"Pages": "2267-2270", 
"No": 23, 
"Tag": "Savage1996", 
"Link": null, 
"Year": 1996, 
"id": 26
}, 
{
"Comment": null, 
"DOI": null, 
"Title": "Seismic constraints on dynamics of the mantle of the Kaapvaal craton", 
"Journal": "Phys. Earth Planet. Int.", 
"Authors": "Vinnik, L.P., Green, R.W.E. and Nicolaysen, L.O.", 
"Pages": "139-151", 
"No": 95, 
"Tag": "Vinnik1996", 
"Link": null, 
"Year": 1996, 
"id": 27
}, 
{
"Comment": null, 
"DOI": null, 
"Title": "Seismic anisotropy in the eastern United States: Deep structure of a complex continental plate", 
"Journal": "J. Geophys. Res", 
"Authors": "Barruol, G., Silver, P.G and Vauchez, A.", 
"Pages": "8329-8348", 
"No": 102, 
"Tag": "Barruol1997a", 
"Link": null, 
"Year": 1997, 
"id": 28
}, 
{
"Comment": null, 
"DOI": null, 
"Title": "Shear wave splitting around the northern Atlantic, frozen Pangaean lithospheric anisotropy?", 
"Journal": "Tectonophysics", 
"Authors": "Barruol, G., Helffrich, G. and Vauchez, A.", 
"Pages": "135-148", 
"No": "279(1-4)", 
"Tag": "Barruol1997b", 
"Link": null, 
"Year": 1997, 
"id": 29
}, 
{
"Comment": null, 
"DOI": null, 
"Title": "Seismic anisotropy beneath the southern Himalayas-Tibet collision zone", 
"Journal": "J. Geophys. Res.", 
"Authors": "Sandvol, E.A., Ni, J.F., Kind, R. and Zhao, W.", 
"Pages": "17813-17823", 
"No": "102(8)", 
"Tag": "Sandvol1997", 
"Link": null, 
"Year": 1997, 
"id": 30
}, 
{
"Comment": null, 
"DOI": null, 
"Title": "Lithospheric anisotropy beneath the Pyrenees from shear wave splitting", 
"Journal": "J. Geophys. Res.", 
"Authors": "Barruol, G., Souriau, A., Vauchez, A., Diaz, J., Gallart, J., Tubia, J. and Cuevas, J.", 
"Pages": "30039-30053", 
"No": "103(12)", 
"Tag": "Barruol1998", 
"Link": null, 
"Year": 1998, 
"id": 31
}, 
{
"Comment": null, 
"DOI": null, 
"Title": "Shear wave anisotropy in the upper mantle beneath the Nazca plate in northern Chile", 
"Journal": "J. Geophys. Res.", 
"Authors": "Bock, G., Kind, R., Rudloff, A. and Asch, G.", 
"Pages": "24333-24345", 
"No": "103(B10)", 
"Tag": "Bock1998", 
"Link": null, 
"Year": 1998, 
"id": 32
}, 
{
"Comment": null, 
"DOI": null, 
"Title": "SKS-wave splitting and upper mantle structure: results in the Southern Apennines", 
"Journal": "Annali Di Geofisica", 
"Authors": "Margheriti, L.", 
"Pages": "607-616", 
"No": "41(4)", 
"Tag": "Margheriti1998", 
"Link": null, 
"Year": 1998, 
"id": 33
}, 
{
"Comment": null, 
"DOI": null, 
"Title": "Upper mantle anisotropy in Victoria Land (Antarctica)", 
"Journal": "PAgeoph", 
"Authors": "Pondrelli, S., Azzara, R.", 
"Pages": "433-442", 
"No": 151, 
"Tag": "Pondrelli1998", 
"Link": null, 
"Year": 1998, 
"id": 34
}, 
{
"Comment": null, 
"DOI": null, 
"Title": "Shear wave splitting and upper mantle deformation in French Polynesia, Evidence from small-scale heterogeneity related to the Society hotspot", 
"Journal": "J. Geophys. Res.", 
"Authors": "Russo, R.M., Okal, E.A.", 
"Pages": "15089-15107", 
"No": 103, 
"Tag": "Russo1998", 
"Link": null, 
"Year": 1998, 
"id": 35
}, 
{
"Comment": null, 
"DOI": "10.1007/s000240050122", 
"Title": "Anisotropy of the Yellowstone Hot Spot wake, eastern Snake River Plain, Idaho", 
"Journal": "PAGEOPH", 
"Authors": "Schutt, D.L., Humphreys, E.D., Dueker, K.", 
"Pages": "443-462", 
"No": "151(2-4)", 
"Tag": "Schutt1998", 
"Link": null, 
"Year": 1998, 
"id": 36
}, 
{
"Comment": null, 
"DOI": null, 
"Title": "Shear-wave splitting and implications for mantle flow beneath the MELT region of the East Pacific Rise", 
"Journal": "Science", 
"Authors": "Wolfe, C.J., Solomon, S.C.", 
"Pages": "1230-1232", 
"No": 280, 
"Tag": "Wolfe1998a", 
"Link": null, 
"Year": 1998, 
"id": 37
}, 
{
"Comment": null, 
"DOI": null, 
"Title": "Shear wave splitting at central Tien Shan, evidence for rapid variation of anisotropic patterns", 
"Journal": "Geophys. Res. Let.", 
"Authors": "Wolfe, C.J., Vernon, J.F.L.", 
"Pages": "1217-1220", 
"No": 25, 
"Tag": "Wolfe1998b", 
"Link": null, 
"Year": 1998, 
"id": 38
}, 
{
"Comment": null, 
"DOI": null, 
"Title": "Upper mantle anisotropy beneath the Geoscope stations", 
"Journal": "J. Geophys. Res.", 
"Authors": "Barruol, G., Hoffman, R.", 
"Pages": "10757-10773", 
"No": "104(B5)", 
"Tag": "Barruol1999", 
"Link": null, 
"Year": 1999, 
"id": 39
}, 
{
"Comment": null, 
"DOI": null, 
"Title": "Anisotropic structure of the Hikurangi subduction zone, New Zealand - integrated interpretation of surface-wave and body- wave observations", 
"Journal": "Geophys. J. Int.", 
"Authors": "Brisbourne, A., Stuart, G. and Kendall, J.M.", 
"Pages": "214-230", 
"No": "137(1)", 
"Tag": "Brisbourne1999", 
"Link": null, 
"Year": 1999, 
"id": 40
}, 
{
"Comment": null, 
"DOI": null, 
"Title": "Upper-mantle flow in Eastern Europe", 
"Journal": "Geophysical Research Letters", 
"Authors": "Dricker, I., Vinnik, L.P., Roecker, S. and Makeyeva, L.", 
"Pages": "1219-1222", 
"No": "26(9)", 
"Tag": "Dricker1999", 
"Link": null, 
"Year": 1999, 
"id": 41
}, 
{
"Comment": null, 
"DOI": null, 
"Title": "Shear wave splitting observations in the Archean craton of western Superior", 
"Journal": "Geophysical Research Letters", 
"Authors": "Kay, I., Sol, S., Kendall, J.M., Thomson, C., White, D., Asudeh, I., Roberts, B., Francis, D.", 
"Pages": "2669-2672", 
"No": "26(17)", 
"Tag": "Kay1999", 
"Link": null, 
"Year": 1999, 
"id": 43
}, 
{
"Comment": null, 
"DOI": null, 
"Title": "Seismic anisotropy beneath the lower half of the North Island, New Zealand", 
"Journal": "J. Geophys. Res.", 
"Authors": "Marson-Pidgeon, K., Savage, M. K., Gledhill, K., Stuart, G.", 
"Pages": "20277-20286", 
"No": "104(B9)", 
"Tag": "Marson-Pidgeon1999", 
"Link": null, 
"Year": 1999, 
"id": 44
}, 
{
"Comment": null, 
"DOI": null, 
"Title": "Shear-wave splitting across western Saudi Arabia: the pattern of upper mantle anisotropy at a Proterozoic shield", 
"Journal": "Geophysical Research Letters", 
"Authors": "Wolfe, C.J., Vernon, F.L., and Al-Amri, A.", 
"Pages": "779-782", 
"No": "26(6)", 
"Tag": "Wolfe1999", 
"Link": null, 
"Year": 1999, 
"id": 46
}, 
{
"Comment": null, 
"DOI": null, 
"Title": "Anisotropy across the Sorgenfrei-Tornquist Zone from shear wave splitting", 
"Journal": "Tectonophysics", 
"Authors": "Wylegalla, K., Bock, G., Gossler, J. and Hanka, W.", 
"Pages": "335-350", 
"No": "314(1-3)", 
"Tag": "Wylegalla1999", 
"Link": null, 
"Year": 1999, 
"id": 47
}, 
{
"Comment": null, 
"DOI": null, 
"Title": "Seismic anisotropy from local earthquakes in the transition region from a subduction to a strike-slip plate boundary, New Zealand", 
"Journal": "J. Geophys. Res.", 
"Authors": "Audoine, E., Savage, M.K. and Gledhill, K.", 
"Pages": "8013-8033", 
"No": "105(4)", 
"Tag": "Audoine2000", 
"Link": null, 
"Year": 2000, 
"id": 48
}, 
{
"Comment": null, 
"DOI": null, 
"Title": "A reconnaissance teleseismic study of the upper mantle and transition zone beneath the Archean Slave craton in NW Canada", 
"Journal": "Tectonophysics", 
"Authors": "Bank, C.-G., Bostock,M.G., Ellis, R.M. and Cassidy, J.F.", 
"Pages": "151-166", 
"No": "319(3)", 
"Tag": "Bank2000", 
"Link": null, 
"Year": 2000, 
"id": 49
}, 
{
"Comment": null, 
"DOI": null, 
"Title": null, 
"Journal": "personal communication", 
"Authors": "Fouch, M.J.", 
"Pages": null, 
"No": null, 
"Tag": "Fouch2000a", 
"Link": null, 
"Year": 2000, 
"id": 50
}, 
{
"Comment": null, 
"DOI": null, 
"Title": "Shear wave splitting, continental keels, and patterns of mantle flow", 
"Journal": "J. Geophys. Res.", 
"Authors": "Fouch, M.J., Fischer, K.M., Parmentier, E.M., Wysession, M.E., Clarke, T.J.", 
"Pages": "6255-6275", 
"No": "105(B3)", 
"Tag": "Fouch2000b", 
"Link": null, 
"Year": 2000, 
"id": 51
}, 
{
"Comment": null, 
"DOI": null, 
"Title": "Subduction-induced strain in the upper mantle east of the Mendocino triple junction, California", 
"Journal": "J. Geophys. Res.", 
"Authors": "Hartog, R., Schwartz, S.Y.", 
"Pages": "7909-7930", 
"No": "105(B4)", 
"Tag": "Hartog2000", 
"Link": null, 
"Year": 2000, 
"id": 52
}, 
{
"Comment": null, 
"DOI": null, 
"Title": "No regional anisotropic domains in the northeastern US Appalachians", 
"Journal": "J. Geophys. Res.", 
"Authors": "Levin, V.,Menke, W., and Park, J.", 
"Pages": "19029-19042", 
"No": "105(B8)", 
"Tag": "Levin2000", 
"Link": null, 
"Year": 2000, 
"id": 53
}, 
{
"Comment": null, 
"DOI": null, 
"Title": "Shear wave anisotropy beneath the Andes from the BANJO, SEDA, and PISCO experiments", 
"Journal": "J. Geophys. Res.", 
"Authors": "Polet, J., Silver, P.G., Beck, S., Wallace, T., Zandt, G., Ruppert, S., Kind, R. and Rudloff, A.", 
"Pages": "6287-6304", 
"No": "105(B3)", 
"Tag": "Polet2000", 
"Link": null, 
"Year": 2000, 
"id": 54
}, 
{
"Comment": null, 
"DOI": null, 
"Title": "Shear wave anisotropy beneath the Taiwan orogen", 
"Journal": "Earth  Planet. Sci. Lett.", 
"Authors": "Rau, R. J., Liang, W.T., et al.", 
"Pages": "177-192", 
"No": "177(3-4)", 
"Tag": "Rau2000", 
"Link": null, 
"Year": 2000, 
"id": 55
}, 
{
"Comment": null, 
"DOI": null, 
"Title": "Lithospheric assembly and modification of the SE Canadian Shield: Abitibi-Grenville teleseismic experiment", 
"Journal": "J. Geophys. Res.", 
"Authors": "Rondenay, S., Bostock, M. G., Hear, T.M., White, D.J. and Ellis, R.M.", 
"Pages": "13735-13754", 
"No": "105(B6)", 
"Tag": "Rondenay2000", 
"Link": null, 
"Year": 2000, 
"id": 56
}, 
{
"Comment": null, 
"DOI": null, 
"Title": "Seismic anisotropy and mantle flow from the Great Basin to the Great Plains, western United States", 
"Journal": "J. Geophys. Res.", 
"Authors": "Savage, M. K., Sheehan, A. F. ", 
"Pages": "13715-13734", 
"No": "105(B6)", 
"Tag": "Savage2000", 
"Link": null, 
"Year": 2000, 
"id": 57
}, 
{
"Comment": null, 
"DOI": null, 
"Title": "Mantle deformation beneath southern Africa", 
"Journal": "Geophysical Research Letters", 
"Authors": "Silver, P. G., Gao, S.S., Liu, K.H. and the Kaapvaal seismic group", 
"Pages": "2493-2496", 
"No": "28(13)", 
"Tag": "Silver2001", 
"Link": null, 
"Year": 2001, 
"id": 58
}, 
{
"Comment": null, 
"DOI": null, 
"Title": "Shear-wave splitting to test mantle deformation models around Hawaii", 
"Journal": "Geophysical Research Letters", 
"Authors": "Walker, K. T., Bokelmann, G. H. R. and Klemperer, S.L.", 
"Pages": "4319-4322", 
"No": "28(22)", 
"Tag": "Walker2001", 
"Link": null, 
"Year": 2001, 
"id": 59
}, 
{
"Comment": null, 
"DOI": null, 
"Title": "Shear wave splitting across Tornquist-Teisseyre zone in Poland", 
"Journal": "Journal of the Balkan Geophysical Society", 
"Authors": "Wiejacz, P.", 
"Pages": "91-100", 
"No": "4(4)", 
"Tag": "Wiejacz2001", 
"Link": null, 
"Year": 2001, 
"id": 60
}, 
{
"Comment": null, 
"DOI": null, 
"Title": "A Tertiary asthenospheric flow beneath the southern French Massif Central indicated by upper mantle seismic anisotropy and related to the west Mediterranean extension", 
"Journal": "Earth  Planet. Sci. Lett.", 
"Authors": "Barruol, G., Granet, M.", 
"Pages": "31-47", 
"No": "202(1)", 
"Tag": "Barruol2002", 
"Link": null, 
"Year": 2002, 
"id": 61
}, 
{
"Comment": null, 
"DOI": null, 
"Title": "Shear wave splitting across the Iceland hot spot: Results from the ICEMELT experiment", 
"Journal": "J. Geophys. Res.", 
"Authors": "Bjarnason, I.T., Silver, P.G., Rumpker, G., Solomon, S.C.", 
"Pages": 2382, 
"No": 107, 
"Tag": "Bjarnason2002", 
"Link": null, 
"Year": 2002, 
"id": 62
}, 
{
"Comment": null, 
"DOI": null, 
"Title": "Upper-mantle anisotropy beneath the Altai-Sayan region of central Asia", 
"Journal": "Phys. Earth Planet. Int.", 
"Authors": "Dricker, I.G., Roecker, S.W., Vinnik, L.P., Rogozhin, E.A., Makeyeva, L.I.", 
"Pages": "205-223", 
"No": 131, 
"Tag": "Dricker2002", 
"Link": null, 
"Year": 2002, 
"id": 63
}, 
{
"Comment": null, 
"DOI": null, 
"Title": "A teleseismic shear-wave splitting study to investigate mantle flow around South America and implications for plate-driving forces", 
"Journal": "Geophys. J. Int.", 
"Authors": "Helffrich, G., Wiens, D.A., Vera, E., Barrientos, S., Shore, P., Robertson, S., Adaros, R.", 
"Pages": "F1-F7", 
"No": 149, 
"Tag": "Helffrich2002", 
"Link": null, 
"Year": 2002, 
"id": 64
}, 
{
"Comment": null, 
"DOI": null, 
"Title": "Combined analysis of SKS splitting and regional P traveltimes in Siberia", 
"Journal": "Geophys. J. Int.", 
"Authors": "Oreshin, S., Vinnik, L., Makeyeva, L., Kosarev, G., Kind, R., Wentzel, F.", 
"Pages": "393-402", 
"No": 151, 
"Tag": "Oreshin2002", 
"Link": null, 
"Year": 2002, 
"id": 65
}, 
{
"Comment": null, 
"DOI": "10.1046/j.1365-246X.2002.01630.x", 
"Title": "Anisotropy beneath California: shear wave splitting measurements using a dense broadband array", 
"Journal": "Geophys. J. Int.", 
"Authors": "Polet, J., Kanamori, H.", 
"Pages": "313-327", 
"No": 149, 
"Tag": "Polet2002", 
"Link": null, 
"Year": 2002, 
"id": 66
}, 
{
"Comment": null, 
"DOI": null, 
"Title": "Azimuthal variation in seismic anisotropy of the southern California uppermost mantle", 
"Journal": "J. Geophys. Res.", 
"Authors": "Davis, P.M.", 
"Pages": 2052, 
"No": 108, 
"Tag": "Davis2003", 
"Link": null, 
"Year": 2003, 
"id": 67
}, 
{
"Comment": null, 
"DOI": null, 
"Title": "Shear wave splitting and mantle flow beneath LA RISTRA", 
"Journal": "Geophysical Research Letters", 
"Authors": "Gok, R., Ni, J. F., West, M., Sandvol, E., Wilson, D., Asre, R., Baldridge, W.S., Grand, S., Gao, W., Tillmann, F. and Semken, S.", 
"Pages": 1614, 
"No": "30(12)", 
"Tag": "Gok2003", 
"Link": null, 
"Year": 2003, 
"id": 68
}, 
{
"Comment": null, 
"DOI": null, 
"Title": "SKS splitting measurements in the Apenninic-Tyrrhenian domain (Italy) and their relation with lithospheric subduction and mantle convection", 
"Journal": "J. Geophys. Res.-Solid Earth", 
"Authors": "Margheriti, L., Lucente, F. P. and Pondrelli, S.", 
"Pages": 2218, 
"No": "108(B4)", 
"Tag": "Margheriti2003", 
"Link": null, 
"Year": 2003, 
"id": 69
}, 
{
"Comment": null, 
"DOI": "10.1029/2004GL020471", 
"Title": "Insights into rifting from shear wave splitting and receiver functions: an example from Ethiopia", 
"Journal": "Geophys. J. Int.", 
"Authors": "Ayele, A., Stuart, G., and Kendall, J.M.", 
"Pages": "354-362", 
"No": "157(1)", 
"Tag": "Ayele2004", 
"Link": null, 
"Year": 2004, 
"id": 72
}, 
{
"Comment": null, 
"DOI": "10.1016/j.tecto.2004.08.002", 
"Title": "Mapping upper mantle anisotropy beneath SE France by SKS splitting indicates Neogene asthenospheric flow induced by Apenninic slab roll-back and deflected by the deep Alpine roots", 
"Journal": "Tectonophysics", 
"Authors": "Barruol, G., Deschamps, A. and Coutant, O.", 
"Pages": "125-138", 
"No": "394(1-2)", 
"Tag": "Barruol2004", 
"Link": "http://www.sciencedirect.com/science?_ob=ArticleURL&_udi=B6V72-4DK689T-2&_user=2402213&_coverDate=12%2F02%2F2004&_alid=593191425&_rdoc=1&_fmt=full&_orig=search&_cdi=5830&_sort=d&_docanchor=&view=c&_ct=1&_acct=C000041118&_version=1&_urlVersion=0&_userid=2402213&md5=eb8a05ddc03841d25f018afe8791fefe", 
"Year": 2004, 
"id": 73
}, 
{
"Comment": null, 
"DOI": "10.1016/j.epsl.2004.05.026", 
"Title": "Detection of upper mantle flow associated with the African Superplume", 
"Journal": "Earth Planet. Sci. Lett.", 
"Authors": "Behn, M.D., Conrad, C.P., Silver, P.G.", 
"Pages": "259-274", 
"No": 224, 
"Tag": "Behn2004", 
"Link": null, 
"Year": 2004, 
"id": 74
}, 
{
"Comment": null, 
"DOI": "10.1029/2004GL019607", 
"Title": "Toroidal mantle flow around the Calabrian slab (Italy) from SKS splitting", 
"Journal": "Geophys. Res. Lett.", 
"Authors": "Civello, S., Margheriti, L.", 
"Pages": "L10601", 
"No": 31, 
"Tag": "Civello2004", 
"Link": null, 
"Year": 2004, 
"id": 75
}, 
{
"Comment": null, 
"DOI": null, 
"Title": "Shear wave anisotropy beneath the Cascadia subduction zone and western North American craton", 
"Journal": "Geophys. J. Int.", 
"Authors": "Currie, C.A., Cassidy, J.F., Hyndman, R.D., Bostock, M.G.", 
"Pages": "341-353", 
"No": 157, 
"Tag": "Currie2004", 
"Link": null, 
"Year": 2004, 
"id": 76
}, 
{
"Comment": null, 
"DOI": null, 
"Title": "Shear-wave splitting observations in the lower Great Lakes region: Evidence for regional anisotropic domains and keel-modified asthenospheric flow", 
"Journal": "Geophys. Res. Lett.", 
"Authors": "Eaton, D., Frederiksen, A.W., Miong, S.K.", 
"Pages": "L07610", 
"No": 31, 
"Tag": "Eaton2004", 
"Link": null, 
"Year": 2004, 
"id": 77
}, 
{
"Comment": null, 
"DOI": "10.1111/J.1365-246X.2004.02234.x", 
"Title": "Small-scale variations in seismic anisotropy beneath Kimberley, South Africa", 
"Journal": "Geophys. J. Int.", 
"Authors": "Fouch, M.J., Silver, P.G., Bell, D.R., Lee, J.N.", 
"Pages": "764-774", 
"No": 157, 
"Tag": "Fouch2004", 
"Link": null, 
"Year": 2004, 
"id": 78
}, 
{
"Comment": null, 
"DOI": "10.1029/2004GL020495", 
"Title": "Variations in shear-wave splitting in young Pacific seafloor", 
"Journal": "Geophys. Res. Lett.", 
"Authors": "Harmon, N., Forsyth, D.W., Fischer, K.M., Webb, S.C.", 
"Pages": "L15609", 
"No": 31, 
"Tag": "Harmon2004", 
"Link": null, 
"Year": 2004, 
"id": 80
}, 
{
"Comment": "cross correlation", 
"DOI": null, 
"Title": "Probing seismic anisotropy in North Iberia from shear wave splitting", 
"Journal": "Phys. Earth Planet. Int.", 
"Authors": "Diaz, J., Gallart, J., Ruiz, M., Pulgar, J. A., Lopez-Frenandez, C. & Gonzalez-Cortina, J. M.", 
"Pages": "210-225", 
"No": 158, 
"Tag": "Diaz2006", 
"Link": null, 
"Year": 2006, 
"id": 84
}, 
{
"Comment": "Silver & Chan (1991), minimum energy", 
"DOI": "doi:10.1029/2006GL028911", 
"Title": "Spatial and temporal constraints on sources of seismic anisotropy: Evidence from the Scottish highlands", 
"Journal": "Geophys. Res. Lett.", 
"Authors": "Bastow, I. D., T. J. Owens, G. Helffrich, and J. H. Knapp", 
"Pages": null, 
"No": 34, 
"Tag": "Bastow2007", 
"Link": null, 
"Year": 2007, 
"id": 85
}, 
{
"Comment": "Silver & Chan (1991), minimum energy", 
"DOI": null, 
"Title": "Seismic polarization anisotropy beneath the central Tibetan plateau", 
"Journal": "J. Geophys. Res.", 
"Authors": "Huang, W. C., Ni, J. F., Tilmann, F., Nelson, D., Guo, J., Zhao, W., Mechie, J., Kind, R., Saul, J., Rapine, R. & Hearn, T. M.", 
"Pages": "27979-27989", 
"No": 105, 
"Tag": "Huang2000", 
"Link": null, 
"Year": 2000, 
"id": 86
}, 
{
"Comment": "Silver & Chan (1991), minimum energy", 
"DOI": "doi:10.1029/2005GL022585", 
"Title": "Using shear wave splitting measurements to investigate the upper mantle anisotropy beneath the North China craton: distinct variation from east to west", 
"Journal": "Geophys. Res. Lett.", 
"Authors": "Zhao, L. & Zheng, T.", 
"Pages": null, 
"No": 32, 
"Tag": "Zhao2005", 
"Link": null, 
"Year": 2005, 
"id": 87
}, 
{
"Comment": "Silver & Chan (1991), minimum energy", 
"DOI": null, 
"Title": "Constraining the extent of crust-mantle coupling in central Asia using GPS, geologic and shear wave splitting data", 
"Journal": "Earth Planet. Sci. Lett.", 
"Authors": "Flesch, L. M., Holt, W. E., Silver, P. G., Stephenson, M., Wang, C. Y. & Chan, W. W.", 
"Pages": "248-268", 
"No": 238, 
"Tag": "Flesch2005", 
"Link": null, 
"Year": 2005, 
"id": 88
}, 
{
"Comment": "Silver & Chan, minimum energy", 
"DOI": null, 
"Title": "Upper mantle anisotropy beneath the African IRIS and Geoscope stations", 
"Journal": "Geoph. J. Int.", 
"Authors": "Barruol, G. & Ben Ismail, W.", 
"Pages": "549-561", 
"No": 146, 
"Tag": "Barruol2001", 
"Link": null, 
"Year": 2001, 
"id": 89
}, 
{
"Comment": "Rotation Correlation", 
"DOI": null, 
"Title": "A study of azimuthal P residuals and shear-wave splitting across the Kunlun range (Northern Tibetan plateau)", 
"Journal": "Phys. Earth Planet. Int.", 
"Authors": "Guilbert, J., Poupinet, G. & Mei, J.", 
"Pages": "167-174", 
"No": 95, 
"Tag": "Guilbert1996", 
"Link": null, 
"Year": 1996, 
"id": 90
}, 
{
"Comment": "Silver & Chan, minimum energy", 
"DOI": "doi:10.1029.2006GL027717", 
"Title": "Shear wave splitting beneath the central Tian Shan and its tectonic implications", 
"Journal": "Geophys. Res. Lett.", 
"Authors": "Li, A. & Chen, C.", 
"Pages": null, 
"No": 33, 
"Tag": "Li2006", 
"Link": null, 
"Year": 2006, 
"id": 91
}, 
{
"Comment": "Silver and Chan (1991) and stacking method (Wolfe and Silver, 1998)", 
"DOI": "10.1029/2005GL024014", 
"Title": "Shear-wave splitting beneath the Galapagos archipelago", 
"Journal": "Geophys. Res. Lett.", 
"Authors": "Fontaine, F. R., Hooft, E. E. E., Burkett,  P. G., Toomey, D. R., Solomon, S. C., and Silver, P. G.", 
"Pages": null, 
"No": 32, 
"Tag": "Fontaine2005", 
"Link": null, 
"Year": 2005, 
"id": 92
}, 
{
"Comment": "Cluster analysis method of Teanby (2004)", 
"DOI": "10.1029/2005JB003757", 
"Title": "Upper mantle anisotropy beneath the Seychelles microcontinent", 
"Journal": "J. Geophys. Res.", 
"Authors": "Hammond, J. O. S., Kendall, J-M., Rumpker, G., Wookey, J., Teanby, N., Joseph, P., Ryberg, T., Stuart, G.", 
"Pages": null, 
"No": 110, 
"Tag": "Hammond05", 
"Link": "http://earth.leeds.ac.uk/~ear9josh/Hammond_et_al_2005.pdf", 
"Year": 2005, 
"id": 93
}, 
{
"Comment": null, 
"DOI": null, 
"Title": "SKS splitting beneath southern California", 
"Journal": "Geophysical Research Letters", 
"Authors": "Liu, H., Davis, P.M. and Gao, S.", 
"Pages": "767-770", 
"No": 22, 
"Tag": "Liu1995", 
"Link": "http://web.umr.edu/~liukh/publications/Liu_Davis_Gao_jrl95.pdf", 
"Year": 1995, 
"id": 94
}, 
{
"Comment": null, 
"DOI": "10.1029/2005GL024720", 
"Title": "Shear-wave splitting observations at the regions of northern Baja California and southern Basin and Range in Mexico", 
"Journal": "Geophys. Res. Lett.", 
"Authors": "Obrebski, M., Castro, R.R., Valenzuela, R. W., van Benthem, S. and Rebollar, C.J. ", 
"Pages": "L05302", 
"No": 33, 
"Tag": "Obrebski2006", 
"Link": null, 
"Year": 2006, 
"id": 95
}, 
{
"Comment": "Rotation Correlation", 
"DOI": "doi:10.1029/2005GL023561", 
"Title": "Seismic anisotropy in western Tibet", 
"Journal": "Geophys. Res. Lett.", 
"Authors": "Herquel, G. and Tapponier, P.", 
"Pages": null, 
"No": 32, 
"Tag": "Herquel2005", 
"Link": null, 
"Year": 2005, 
"id": 96
}, 
{
"Comment": "Wolfe & Silver (1998) stacking technique applied to individual seismograms' Silver & Chan (1991) splitting measurements", 
"DOI": "10.1046/j.1365-246x.1999.00845.x", 
"Title": "Teleseismic shear wave splitting measurements in noisy environments", 
"Journal": "Geophys. J. Int.", 
"Authors": "Restivo, A., Helffrich, G.", 
"Pages": "821-830", 
"No": 137, 
"Tag": "Restivo1999", 
"Link": "http://www.blackwell-synergy.com/doi/full/10.1046/j.1365-246x.1999.00845.x", 
"Year": 1999, 
"id": 97
}, 
{
"Comment": "Wolfe & Silver (1998) stacking method", 
"DOI": "10.1029/2006GL026106", 
"Title": "Shear wave anisotropy of the northeast Indian lithosphere", 
"Journal": "Geophys. Res. Lett.", 
"Authors": "Singh, A., Kumar, M. R., Raju, P. S. & Ramesh, D. S.", 
"Pages": null, 
"No": 33, 
"Tag": "Singh2006", 
"Link": null, 
"Year": 2006, 
"id": 98
}, 
{
"Comment": "Rotation Correlation", 
"DOI": null, 
"Title": "Teleseismic shear wave splitting and lithospheric anisotropy beneath and across the Altyngh Tagh fault", 
"Journal": "Geophys. Res. Lett.", 
"Authors": "Herquel, G., tapponnier, P., Wittlinger, G., Mei, J. & Danian, S.", 
"Pages": "3225-3228", 
"No": 26, 
"Tag": "Herquel1999", 
"Link": null, 
"Year": 1999, 
"id": 99
}, 
{
"Comment": "Silver and Chan (1991)", 
"DOI": "10.1016/j.epsl.2006.07.038", 
"Title": "Upper mantle anisotropy in SE and Central Brazil from SKS splitting: Evidence of asthenospheric flow around a cratonic keel", 
"Journal": "Earth Planet. Sci. Lett.", 
"Authors": "Assumpcao, M., Heintz, M., Vauchez, A. and Egydio Silva, M.", 
"Pages": "224-240", 
"No": 250, 
"Tag": "Assumpcao2006", 
"Link": null, 
"Year": 2006, 
"id": 100
}, 
{
"Comment": "Silver and Chan (1991)", 
"DOI": "10.1016/S0012-821X(03)00163-8", 
"Title": "Shear wave splitting in SE Brazil: an effect of active or fossil upper mantle flow, or both?", 
"Journal": "Earth Planet. Sci. Lett.", 
"Authors": "Heintz, M., Vauchez, A., Assumpcao, M., Barruol, G.,  and Egydio-Silva, M.", 
"Pages": "79-95", 
"No": 211, 
"Tag": "heintz_Brazil_2003", 
"Link": "http://www.sciencedirect.com/science?_ob=ArticleURL&_udi=B6V61-48JK2R6-2&_user=2402213&_coverDate=06%2F15%2F2003&_rdoc=1&_fmt=&_orig=search&_sort=d&view=c&_acct=C000041118&_version=1&_urlVersion=0&_userid=2402213&md5=460cbfda7664a6d67d6c2bc6eeda4725", 
"Year": 2003, 
"id": 101
}, 
{
"Comment": "Wolfe and Silver (1998)", 
"DOI": "10.1016/j.epsl.2005.05.003", 
"Title": "Continental scale shear wave splitting analysis: Investigation of seismic anisotropy underneath the Australian continent ", 
"Journal": "Earth Planet. Sci. Lett.", 
"Authors": "Heintz, M,  and Kennett, B.L.N.", 
"Pages": "106-119", 
"No": 236, 
"Tag": "Heintz_Australie_2005", 
"Link": "http://www.sciencedirect.com/science?_ob=ArticleURL&_udi=B6V61-4GFNG7W-7&_user=2402213&_coverDate=07%2F30%2F2005&_rdoc=1&_fmt=&_orig=search&_sort=d&view=c&_acct=C000041118&_version=1&_urlVersion=0&_userid=2402213&md5=b823268d5098ffa9ac3f4f5b049d5445", 
"Year": 2005, 
"id": 102
}, 
{
"Comment": "Cross-correlation and multichannel", 
"DOI": "10.1016/j.epsl.2006.09.018", 
"Title": "Seismic anisotropy in Eastern Tibet from shear wave splitting reveals changes in lithospheric deformation ", 
"Journal": "Earth Planet. Sci. Lett", 
"Authors": "Lev, E., Long, D.M.  and Van Der Hilst, R.D.", 
"Pages": "293-304", 
"No": 251, 
"Tag": "Lev_Tibet_2006", 
"Link": "http://www.sciencedirect.com/science?_ob=ArticleURL&_udi=B6V61-4M4KR3D-1&_user=2402213&_coverDate=11%2F15%2F2006&_alid=589026279&_rdoc=1&_fmt=full&_orig=search&_cdi=5801&_sort=d&_docanchor=&view=c&_ct=32&_acct=C000041118&_version=1&_urlVersion=0&_userid=2402213&md5=76164ab0acc31a4b8c3c60879890c3c0#secx3", 
"Year": 2006, 
"id": 103
}, 
{
"Comment": null, 
"DOI": "10.1016/j.epsl.2004.03.024", 
"Title": "Shear-wave splitting beneath the Snake River Plain suggests a mantle upwelling beneath eastern Nevada, USA", 
"Journal": "Earth Planet. Sci. Lett.", 
"Authors": "Walker, T.K., Bokelmann, G. H. R. and Klemperer, S. L.", 
"Pages": "529-542", 
"No": 222, 
"Tag": "Walker_nevada_2004", 
"Link": "http://www.sciencedirect.com/science?_ob=ArticleURL&_udi=B6V61-4CDYCBV-3&_user=2402213&_coverDate=05%2F30%2F2004&_rdoc=1&_fmt=&_orig=search&_sort=d&view=c&_acct=C000041118&_version=1&_urlVersion=0&_userid=2402213&md5=e7d53a5b2411a0cce80ed47090e65910", 
"Year": 2004, 
"id": 104
}, 
{
"Comment": "Wolfe and Silver (1998) and  Silver and Chan (1991)", 
"DOI": "10.1016/S0012-821X(03)00382-0", 
"Title": "Azimuthal anisotropy and phase velocity beneath Iceland: implication for plume-ridge interaction", 
"Journal": "Earth Planet. Sci. Lett.", 
"Authors": "Li, A. and Detrick, R.S.", 
"Pages": "153-165", 
"No": 214, 
"Tag": "Li_Island_2005", 
"Link": "http://www.sciencedirect.com/science?_ob=ArticleURL&_udi=B6V61-499F708-3&_user=2402213&_coverDate=09%2F10%2F2003&_rdoc=1&_fmt=&_orig=search&_sort=d&view=c&_acct=C000041118&_version=1&_urlVersion=0&_userid=2402213&md5=283dc3f16a3f82f1de68b041da0e7a4c", 
"Year": 2003, 
"id": 105
}, 
{
"Comment": "Wolfe and Silver (1998)", 
"DOI": "10.1029/2003JB002932", 
"Title": "Anisotropic structure under a back arc spreading", 
"Journal": "J. Geophys. Res", 
"Authors": "Audoine, E. and Savage, M.K.", 
"Pages": null, 
"No": 109, 
"Tag": "Audoine_New_Zealand_2004", 
"Link": "http://www.agu.org/journals/jb/jb0411/2003JB002932/", 
"Year": 2004, 
"id": 106
}, 
{
"Comment": "Wolfe and Silver (1998)", 
"DOI": null, 
"Title": "Upper mantle anisotropy in the New Zealand region", 
"Journal": "Geoph. Res. Let", 
"Authors": "Klosko, E.R., Wu, F.T., Anderson, H.J., Eberhart-Phillips, D., McEvilly, T.V., Audoine, E., Savage M.K. and Gledhill, K.R. ", 
"Pages": "1497-1500", 
"No": 26, 
"Tag": "Klosko_new_zealand_1999", 
"Link": "http://www.agu.org/pubs/crossref/1999/1999GL900273.shtml", 
"Year": 1999, 
"id": 107
}, 
{
"Comment": null, 
"DOI": "10.1029/2004JB003501", 
"Title": "Models of lithosphere and asthenosphere anisotropic structure of the Yellowstone hot spot from shear wave splitting", 
"Journal": "J. Geophys. Res", 
"Authors": "Waite, G., P., Schutt, D., L. and Smith, R., B.", 
"Pages": null, 
"No": 110, 
"Tag": "Waite_USA_2005", 
"Link": "http://www.agu.org/pubs/crossref/2005.../2004JB003501.shtml", 
"Year": 2005, 
"id": 108
}, 
{
"Comment": "Siver and Chan Eigenvalue Automatic method", 
"DOI": "10.1111/j.1365-246X.2006.02973.x", 
"Title": "Automated SKS splitting and upper-mantle anisotropy beneath Canadian seismic stations", 
"Journal": "Geophys. J. int.", 
"Authors": "Evans, M.S., Kendall, J.-M. and Willemann, R.J.", 
"Pages": "931-942", 
"No": 165, 
"Tag": "Evans_north_america_2006", 
"Link": "http://www.blackwell-synergy.com/doi/pdf/10.1111/j.1365-246X.2006.02973.x", 
"Year": 2006, 
"id": 109
}, 
{
"Comment": "Silver and Chan (1991)", 
"DOI": "10.1111/j.1365-246X.2004.02381.x", 
"Title": "Delay times and shear wave splitting in the Mediterranean region", 
"Journal": "Geophys. J. Int.", 
"Authors": "Schmid, C., van der Lee, S., and Giardini, D. ", 
"Pages": "275-290", 
"No": 159, 
"Tag": "Schmid_mediterranean_2004", 
"Link": "http://www.blackwell-synergy.com/doi/full/10.1111/j.1365-246X.2004.02381.x?prevSearch=allfield%3A%28%2B%22shear-wave+splitting%22%2Bsks%29", 
"Year": 2004, 
"id": 110
}, 
{
"Comment": "Silver and Chan (1991)", 
"DOI": "10.1046/j.1365-246X.2001.00517.x", 
"Title": "Upper mantle seismic anisotropy beneath Antarctica and the Scotia sea", 
"Journal": "Geophys. J. Int.", 
"Authors": "Muller, C.", 
"Pages": "105-122", 
"No": 147, 
"Tag": "Muller_antartic_2001", 
"Link": "http://www.blackwell-synergy.com/doi/full/10.1046/j.1365-246X.2001.00517.x?prevSearch=allfield%3A%28%2B%22shear-wave+splitting%22%2Bsks%29", 
"Year": 2001, 
"id": 111
}, 
{
"Comment": "S, SKS and SKKS, Chevrot (2000) method and cross-correlation", 
"DOI": "10.1016/j.pepi.2005.03.003", 
"Title": "Upper mantle anisotropy beneath Japan from shear wave splitting", 
"Journal": "Phys. Earth Planet. Int.", 
"Authors": "Long, M.D., and van der Hilst, R.D.", 
"Pages": "206-222", 
"No": 151, 
"Tag": "Long_Japan_2005", 
"Link": null, 
"Year": 2005, 
"id": 112
}, 
{
"Comment": "Silver and Chan (1991) method", 
"DOI": null, 
"Title": "Possible frozen anisotropy of seismic velocity beneath antartica", 
"Journal": "30th International Geological Congress Beijing.", 
"Authors": "Kubo, A., Hiramatsu Y. and Kanao M.", 
"Pages": null, 
"No": null, 
"Tag": "Kubo_antartica_1996", 
"Link": null, 
"Year": 1996, 
"id": 113
}, 
{
"Comment": "Silver and Chan (1991) method", 
"DOI": "10.1111/j.1365-246X.2006.03287.x", 
"Title": "Seismic anisotropy of the Slave craton, NW Canada, from joint interpretation of SKS and Rayleigh waves", 
"Journal": "Geoph. J. Int.", 
"Authors": "Snyder, D. and Bruneton, M.", 
"Pages": "170-188", 
"No": 169, 
"Tag": "Snyder_slave_craton_2007", 
"Link": "http://www.blackwell-synergy.com/doi/full/10.1111/j.1365-246X.2006.03287.x?prevSearch=allfield%3A%28snyder+slave+craton%29", 
"Year": 2007, 
"id": 114
}, 
{
"Comment": "Silver and Chan method", 
"DOI": "10.1029/2004GL021875", 
"Title": "Seismic anisotropy beneath east Greenland revealed by shear wave splitting", 
"Journal": "Geoph. Res. Let", 
"Authors": "Ucisik, N., Gudmundsson, O., Priestley, K. and Larsen, T. B.", 
"Pages": null, 
"No": 32, 
"Tag": "Ucisik_Greenland_2005", 
"Link": "http://www.agu.org/journals/gl/gl0508/2004GL021875/", 
"Year": 2005, 
"id": 115
}, 
{
"Comment": "Silver and Chan (1991) method", 
"DOI": "10.1029/2001TC901035", 
"Title": "Seismic anisotropy of the French Massif Central and predisposition of Cenozoic rifting and volcanism by Variscan suture hidden in the mantle lithosphere", 
"Journal": "tectonics", 
"Authors": "Babuska, V., Plomerova, J. and Vecsey L.", 
"Pages": null, 
"No": "21(4)", 
"Tag": "Babuska_Massif_Central_2002", 
"Link": "http://www.agu.org/pubs/crossref/2002/2001TC901035.shtml", 
"Year": 2002, 
"id": 116
}, 
{
"Comment": "Silver and Chan (1991) method", 
"DOI": null, 
"Title": "Shear wave anisotropy in the upper mantle beneath the Aegean", 
"Journal": "J. Geophys. Res.", 
"Authors": "Hatzfeld, D., Karagianni, E., Kassaras, I., Kiratzi, A., Louvari, E., Lyon-Caen, H., Makropoulos, K., Papadimitriou, P., Bock, G. and Priestley, K.", 
"Pages": "30737\u00f130753", 
"No": "106(12)", 
"Tag": "Hatzfeld_Greece_2001", 
"Link": "http://www.agu.org/pubs/crossref/2001/2001JB000387.shtml", 
"Year": 2001, 
"id": 117
}, 
{
"Comment": "Silver and Chan (1991) method", 
"DOI": "10.1016/j.epsl.2005.03.017", 
"Title": "Asthenospheric channeling of the Icelandic upwelling: Evidence from seismic anisotropy", 
"Journal": "Earth Planet. Sci. Lett", 
"Authors": "Xue, M., and Allen, R.M.", 
"Pages": "167-182", 
"No": 235, 
"Tag": "Xue_Iceland_2005", 
"Link": "http://www.sciencedirect.com/science?_ob=ArticleURL&_udi=B6V61-4G6J89W-1&_user=2402213&_coverDate=06%2F30%2F2005&_alid=594341924&_rdoc=1&_fmt=full&_orig=search&_cdi=5801&_sort=d&_docanchor=&view=c&_ct=1&_acct=C000041118&_version=1&_urlVersion=0&_userid=2402213&md5=727410e86deb6b6d4e0cb64618eda60f", 
"Year": 2005, 
"id": 118
}, 
{
"Comment": null, 
"DOI": null, 
"Title": "Mantle and crust anisotropy in the eastern China region inferred from waveform splitting of SKS and PpSms", 
"Journal": "Earh, planets, space", 
"Authors": "Iidaka, T., and Niu, F.", 
"Pages": "159-168", 
"No": 53, 
"Tag": "Iidaka_China_2001", 
"Link": "http://www.terrapub.co.jp/journals/EPS/abstract/5303/53030159.html", 
"Year": 2001, 
"id": 119
}, 
{
"Comment": "Wolfe and Silver (1998) method", 
"DOI": "10.1111/j.1365-246X.2005.02636.x", 
"Title": "Shear-wave splitting around the Eifel hotspot: evidence for a mantle upwelling", 
"Journal": "Geoph. J. Int.", 
"Authors": "Walker,K.T., Bokelmann, G.H.R., Klemperer, S.L., and Bock, G. ", 
"Pages": "962-980", 
"No": 163, 
"Tag": "Walker_Eifel_2005", 
"Link": null, 
"Year": 2005, 
"id": 120
}, 
{
"Comment": "Silver and Chan (1991) method", 
"DOI": "10.2113/174.1.45", 
"Title": "The Hercynian collision in the Armorican Massif: evidence of different lithospheric domains inferred from seismic tomography and anisotropy", 
"Journal": "Bull. Soc. geol. Fr.", 
"Authors": "Judenherc, S., Granet, M., Brun, J.P. and Poupinet, G.", 
"Pages": "45-57", 
"No": "174(1)", 
"Tag": "Judenherc_Britany_2003", 
"Link": "http://bsgf.geoscienceworld.org/cgi/content/french_abstract/174/1/45", 
"Year": 2003, 
"id": 121
}, 
{
"Comment": "Silver and Chan (1991) method", 
"DOI": null, 
"Title": "SKS splitting beneath continental rift zones", 
"Journal": "J. Geophys. Res", 
"Authors": "Gao, S., Davis, P.M., Liu, H., Slack, P.D., Rigor, A.W., Zorin, Y.A., Mordvinova, V.V., Kozhevnikov, V.M. and Logatchev, N.A.", 
"Pages": "22,781-22,797", 
"No": "102(B10)", 
"Tag": "Gao_Kenya_1997", 
"Link": "http://www.agu.org/pubs/crossref/1997/97JB01858.shtml", 
"Year": 1997, 
"id": 122
}, 
{
"Comment": "cross correlation method", 
"DOI": "10.1029/96GL01410", 
"Title": "Seismic and electrical anisotropies in the lithosphere across the grenvill Front, Canada", 
"Journal": "Geoph. Res. Let", 
"Authors": "S\u00c8n\u00c8chal, G., Rondenay, S., Mareschal, M., Guilbert, J. and Poupinet, G.", 
"Pages": "2255-2258", 
"No": "23(17)", 
"Tag": "Senechal_canada_1996", 
"Link": "http://www.agu.org/pubs/crossref/1996/96GL01410.shtml", 
"Year": 1996, 
"id": 123
}, 
{
"Comment": "Silver and Chan (1991), or Restivo and Helffrich (1999) stacking for noisy stations", 
"DOI": null, 
"Title": "Geodynamics of the southeastern Tibetan Plateau from seismic anisotropy and geodesy", 
"Journal": "Geology", 
"Authors": "Sol, S., A. Meltzer, R. Burgmann, R. D. van der Hilst, R. King, Z. Chen, P. O. Koons, E. Lev, Y. P. Liu, P. K. Zeitler, X. Zhang, J. Zhang, and B. Zurek ", 
"Pages": "563-566", 
"No": 35, 
"Tag": "Sol2007", 
"Link": null, 
"Year": 2007, 
"id": 124
}, 
{
"Comment": "Silver and Chan (1991) and stack from Wolfe and Silver (1998)", 
"DOI": "doi:210.1016/j.pepi.2007.1007.003", 
"Title": "Mantle deformation in Sikkim and adjoining Himalaya: Evidences for a complex flow pattern", 
"Journal": "Phys. Earth Planet. Int.", 
"Authors": "Singh, A., M. R. Kumar, and P. S. Raju ", 
"Pages": "232-241", 
"No": 164, 
"Tag": "Singh2007", 
"Link": null, 
"Year": 2007, 
"id": 125
}, 
{
"Comment": "Silver and Chan (1991)", 
"DOI": "doi:10.1016/j.pepi.2006.03.025", 
"Title": "Mantle fabric at multiple scales across an Archean-Proterozoic boundary, Grenville Front, Canada", 
"Journal": "Phys. Earth Planet. Int.", 
"Authors": "Frederiksen, A. W., I. J. Ferguson, D. Eaton, S. K. Miong, and E. Gowan ", 
"Pages": "240-263", 
"No": 158, 
"Tag": "Frederiksen2006", 
"Link": null, 
"Year": 2006, 
"id": 126
}, 
{
"Comment": "Silver and Chan (1991) and stack from Wolfe and Silver (1998)", 
"DOI": "doi:10.1111/j.1365-1246X.2007.03519.x.", 
"Title": "Seismic anisotropy beneath Dronning Maud Land, Antarctica, revealed by shear wave splitting", 
"Journal": "Geoph. J. Int.", 
"Authors": "Bayer, B., C. M\u00b8ller, D. Eaton, and W. Jokat ", 
"Pages": null, 
"No": null, 
"Tag": "Bayer2007", 
"Link": null, 
"Year": 2007, 
"id": 127
}, 
{
"Comment": "Multichannel method (Chevrot, 2000)", 
"DOI": "10.1016/j.tecto.2005.10.023 ", 
"Title": "Shear wave splitting in the Eastern Alps observed at the TRANSALP network", 
"Journal": "Tectonophysics", 
"Authors": "Kummerow, J.; Kind, R.", 
"Pages": "117-125", 
"No": 414, 
"Tag": "Kummerow2007", 
"Link": null, 
"Year": 2006, 
"id": 129
}, 
{
"Comment": "Silver and Chan (1991) and average values calculated by the authors from the individual measurements provided in the paper", 
"DOI": "10.1016/j.pepi.2007.1003.1004", 
"Title": "Shear wave splitting in eastern and central China: Implications for upper mantle deformation beneath continental margin", 
"Journal": "Phys. Earth Planet. Int.", 
"Authors": "Zhao, L., T. Y. Zheng, L. Chen, and Q. S. Tang", 
"Pages": "73-84", 
"No": 162, 
"Tag": "Zhao2007", 
"Link": null, 
"Year": 2007, 
"id": 130
}, 
{
"Comment": "Silver and Chan (1991)", 
"DOI": "10.1029/2007GL031236", 
"Title": "Shear wave splitting across the Ailao Shan-red River fault zone, SW China", 
"Journal": "Geophys. Res. Lett.", 
"Authors": "Huang, Z., Wang, L., Xu, M., Liu, J., Mi, N. and Liu, S.", 
"Pages": null, 
"No": 34, 
"Tag": "Huang2007", 
"Link": null, 
"Year": 2007, 
"id": 131
}, 
{
"Comment": "Silver and Chan (1991)", 
"DOI": "10.1111/j.1365-1246X.2007.03475.x.", 
"Title": "Upper mantle flow beneath French Polynesia from shear-wave-splitting", 
"Journal": "Geoph. J. Int.", 
"Authors": "Fontaine, F.R.; Barruol, G.; Tommasi, A.; Bokelmann, G.H.R.", 
"Pages": null, 
"No": 169, 
"Tag": "Fontaine2007", 
"Link": null, 
"Year": 2007, 
"id": 132
}, 
{
"Comment": null, 
"DOI": "10.1029/2007GL031753", 
"Title": "Indian mantle corner flow at southern Tibet revealed by shear wave splitting measurements.", 
"Journal": "Geophysical Research Letter", 
"Authors": "Fu, Y. V.; Chen, Y. J.; Li, A.; Zhou, S.; Liang, X.; Ye, G.; Jin, G.; Jiang, M.; Ning, J.", 
"Pages": null, 
"No": 35, 
"Tag": "Fu2008", 
"Link": null, 
"Year": 2008, 
"id": 133
}, 
{
"Comment": null, 
"DOI": "10.1029/2007JB005178", 
"Title": "Shear wave splitting and mantle flow associated with the deflected Pacific slab beneath northeast Asia", 
"Journal": "J. Geophys. Res.", 
"Authors": "Liu, K. H.; Gao, S. S.; Gao, Y.; Wu, J.", 
"Pages": null, 
"No": 113, 
"Tag": "Liu2008", 
"Link": null, 
"Year": 2008, 
"id": 134
}, 
{
"Comment": "correlation", 
"DOI": null, 
"Title": "Anisotropy beneath the Iberian Peninsula: the contribution of the ILIHA- NARS broad-band experiment. ", 
"Journal": "Pageoph", 
"Authors": "D\u00ccaz, J., Gallart, J. , Hirn, A.and Paulssen, H.. ", 
"Pages": "395-405", 
"No": 151, 
"Tag": "Diaz1998", 
"Link": null, 
"Year": 1998, 
"id": 135
}, 
{
"Comment": "Silver and Chan (1991)", 
"DOI": "10.1029/2007JB005128", 
"Title": "Evidence for plate motion related strain in the Indian shield from shear wave splitting measurements", 
"Journal": "J. Geophys. Res.", 
"Authors": "Ravi Kumar, M., and A. Singh", 
"Pages": null, 
"No": null, 
"Tag": "Kumar2008", 
"Link": null, 
"Year": 2008, 
"id": 136
}, 
{
"Comment": "SplitLab software (Wuestefeld et al., 2008)", 
"DOI": null, 
"Title": "Methods and applications of shear wave splitting: The East European Craton", 
"Journal": "PhD Thesis, Univ. Montpellier, France", 
"Authors": "Wuestfeld, A.", 
"Pages": null, 
"No": null, 
"Tag": "wuestfeld2008", 
"Link": null, 
"Year": 2008, 
"id": 138
}, 
{
"Comment": "Silver and Chan (1991), eigenvalues and SplitLab (Wuestefeld et al., 2008) for ULN (2 anisotropic layers) and TLY (complex structure)", 
"DOI": "10.1016/j.epsl.2008.07.027", 
"Title": "Upper mantle flow beneath and around the Hangay dome, central Mongolia", 
"Journal": "Earth Planet. Sci. Lett.", 
"Authors": "Barruol, G., Deschamps, A., Deverchere, J., Mordvinova, V.V., Ulziibat, M., Perrot, J., Artem'ev, A.A., Dugarmaa, T. and Bokelmann, G.H.R.", 
"Pages": "221-233", 
"No": 274, 
"Tag": "Barruol2008", 
"Link": null, 
"Year": 2008, 
"id": 139
}, 
{
"Comment": "Eigenvalues, Splitlab (Wuestefeld et al., 2008), Means calculated from the median values", 
"DOI": "10.1016/j.epsl.2008.06.024", 
"Title": "Seismic Anisotropy Beneath Southern Iberia From SKS Splitting", 
"Journal": "Earth Planet. Sci. Lett.", 
"Authors": "Buontempo, L., G.H.R. Bokelmann, G. Barruol and J. Morales", 
"Pages": "237-250", 
"No": 273, 
"Tag": "Buontempo2008", 
"Link": null, 
"Year": 2008, 
"id": 140
}, 
{
"Comment": "Silver and Chan (1991)  and Teanby et al. (2004)", 
"DOI": "110.1016/j.tecto.2008.1005.1001. ", 
"Title": "Seismic anisotropy in the crust and upper mantle of the Central Alborz Region, Iran", 
"Journal": "Tectonophysics", 
"Authors": "Sadidkhouy, A., G. Javan-Doloei, H.R. Siahkoohi", 
"Pages": "194-205", 
"No": 456, 
"Tag": "Sadidkhouy2008", 
"Link": null, 
"Year": 2008, 
"id": 141
}, 
{
"Comment": "Rotation correlation (Ivan, 2000) and Ah_splitest (Levin et al., 1999)", 
"DOI": "10.1016/j.tecto.2007.1012.1015", 
"Title": "SKS Splitting Observed At Romanian Broad-Band Seismic Network", 
"Journal": "Tectonophysics", 
"Authors": "Ivan, M., M. Popa, D. Ghica", 
"Pages": null, 
"No": null, 
"Tag": "Ivan2008", 
"Link": null, 
"Year": 2008, 
"id": 142
}, 
{
"Comment": "Data reprocessed by M. Bonnin, Geoscience Montpellier, 2007, with SplitLab software (Wuestefeld et al., 2008). Results very similar than the data published by Sandvol et al., 2003.", 
"DOI": "10.1029/2003GL017390", 
"Title": "Shear wave splitting in a young continent-continent collision: an example from eastern Turkey", 
"Journal": "Geophys. Res. Lett.", 
"Authors": "Sandvol, E.A.,  N. Turkelli, E. Zor, R. Gok, T. Bekler, C. Gurbuz, D. Seber, M. Barazangi,  ", 
"Pages": null, 
"No": 30, 
"Tag": "Sandvol2003", 
"Link": null, 
"Year": 2003, 
"id": 143
}, 
{
"Comment": "Silver and Chan (1991)", 
"DOI": "10.1029/2008GL035188", 
"Title": "Shear wave splitting in the southern margin of the Ordos Block, north China", 
"Journal": "Geophys. Res. Lett.", 
"Authors": "Huang, Z., M. Xu, L. Wang, N. Mi, D. Yu, and H. Li", 
"Pages": "L19301", 
"No": 35, 
"Tag": "Huang2008", 
"Link": null, 
"Year": 2008, 
"id": 144
}, 
{
"Comment": "Correction of H2O and JOHN", 
"DOI": "10.1029/2002GL016712", 
"Title": "Reply to: Shear-wave splitting to test mantle deformation models around Hawaii by Vinnik et al.", 
"Journal": "Geophys. Res. Lett.", 
"Authors": "Walker,K.T.; Bokelmann, G.H.R.; Klemperer,S.L.", 
"Pages": 1676, 
"No": "30(13)", 
"Tag": "WalkerReply", 
"Link": "http://www.agu.org/pubs/crossref/2003/2002GL016712.shtml", 
"Year": 2003, 
"id": 145
}, 
{
"Comment": "Silver and Chan (1991)", 
"DOI": "10.1130/GES00159.1. ", 
"Title": "Characteristics of mantle fabrics beneath the south-central United States: Constraints from shear-wave splitting measurements", 
"Journal": "Geosphere", 
"Authors": "Gao, S., Liu, K.H., Stern, R.J., Keller, G.R., Hogan, J.P., Pulliam, J., and Anthony, E.Y.", 
"Pages": "411-417", 
"No": 4, 
"Tag": "Gao2008", 
"Link": null, 
"Year": 2008, 
"id": 146
}, 
{
"Comment": "Silver and Chan (1991)  and Wolfe and Silver (1998) for stacking", 
"DOI": "10.1016/j.tecto.2007.11.074. ", 
"Title": "Variations of shear wave splitting in Greenland: Mantle anisotropy and possible impact of the Iceland plume", 
"Journal": "Tectonophysics", 
"Authors": "Ucisik, N., Gudmundsson, O., Hanka, W., and Dahl-Jensen, T.", 
"Pages": "137-148", 
"No": 462, 
"Tag": "Ucisik2008", 
"Link": null, 
"Year": 2008, 
"id": 147
}, 
{
"Comment": "Silver and Chan (1991)", 
"DOI": "10.1016/j.tecto.2008.01.022. ", 
"Title": "Sub-slab mantle flow parallel to the Caribbean plate boundaries: Inferences from SKS splitting", 
"Journal": "Tectonophysics", 
"Authors": "Pinero-Feliciangeli, L.T., and Kendall, J.M.", 
"Pages": "22-34", 
"No": 462, 
"Tag": "Pinero2008", 
"Link": null, 
"Year": 2008, 
"id": 148
}, 
{
"Comment": "Silver and Chan (1991)", 
"DOI": "10.1016/j.pepi.2009.03.008 ", 
"Title": "Upper mantle anisotropy beneath Indochina block and adjacent regions from shear-wave splitting analysis of Vietnam broadband seismograph array data", 
"Journal": "Phys. Earth Planet. Int.", 
"Authors": "Bai, L.; Iidaka, T.; Kawakatsu, H.; Morita, Y.; Dzung, N.Q. ", 
"Pages": "In Press", 
"No": null, 
"Tag": "Bai2009", 
"Link": null, 
"Year": 2009, 
"id": 149
}, 
{
"Comment": "SplitLab software (Wuestefeld et al., 2008), eigenvalue method", 
"DOI": "10.1029/2009GL038139", 
"Title": "Mapping Upper Mantle flow Beneath French Polynesia from broadband ocean bottom seismic observations", 
"Journal": "Geoph. Res. Lett.", 
"Authors": "Barruol, G., D. Suetsugu, H. Shiobara, H. Sugioka, S. Tanaka, G. H. R. Bokelmann, F.R. Fontaine, D. Reymond", 
"Pages": null, 
"No": 36, 
"Tag": "Barruol2009", 
"Link": null, 
"Year": 2009, 
"id": 150
}, 
{
"Comment": "Silver and Chan (1991), and Stacking technique (Wolfe & Silver, 1998)", 
"DOI": "10.1111/j.1365-246X.2009.04158.x", 
"Title": "Upper mantle seismic anisotropy of South Victoria Land and Ross Sea coast, Antarctica from SKS and SKKS splitting analysis", 
"Journal": "Geoph. J. Int.", 
"Authors": "Barklage, M., D. A. Wiens, A. A. Nyblade, and S. Anandakrishnan", 
"Pages": "729-741", 
"No": 178, 
"Tag": "Barklage2009", 
"Link": null, 
"Year": 2009, 
"id": 151
}, 
{
"Comment": "Silver and Chan, 1991", 
"DOI": "10.1029/2004GL020471", 
"Title": "Shear-wave splitting in Ethiopia: Precambrian mantle anisotropy locally modified by Neogene rifting", 
"Journal": "Geophys. Res. Lett.", 
"Authors": "Gashawbeza, E.M., Klemperer, S.L., Nyblade, A.A., Walker, K.T., Keranen, K.M.", 
"Pages": "L18602", 
"No": 31, 
"Tag": "Gashawbeza2004", 
"Link": null, 
"Year": 2004, 
"id": 152
}, 
{
"Comment": "Silver and Chan, 1991 - Wolfe and Silver 1998", 
"DOI": "10.1029/2003JB002866", 
"Title": "On the relationship between extension and anisotropy: Constraints from shear-wave splitting across the East African Plateau", 
"Journal": "J. Geophys. Res.", 
"Authors": "Walker, K.T., Nyblade, A.A., Klemperer, S.L., Bokelmann, G.H.R. and Owens, J.T.", 
"Pages": "B08302", 
"No": 109, 
"Tag": "Walker2004", 
"Link": null, 
"Year": 2004, 
"id": 153
}, 
{
"Comment": "rotation-correlation method (Bowman and Ando, 1987) in the SplitLab environment (Wuestefeld et al., 2008)", 
"DOI": "10.1016/j.epsl.2009.07.003", 
"Title": "Shear-wave splitting, lithospheric anisotropy, and mantle deformation beneath the Arabia-Eurasia collision zone in Iran", 
"Journal": "Earth Planet. Sci. Lett.", 
"Authors": "Kaviani, A., Hatzfeld, D., Paul, A., Tatar, M. & Priestley, K.", 
"Pages": "371-378", 
"No": 286, 
"Tag": "Kaviani2009", 
"Link": null, 
"Year": 2009, 
"id": 154
}, 
{
"Comment": "rotation correlation method (Bowman and Ando, 1987) in the SplitLab environment (Wustefeld et al., 2008)", 
"DOI": "10.1029/2009GL038148", 
"Title": "SKS/SKKS splitting and Taiwan orogeny", 
"Journal": "Geoph. Res. Lett.", 
"Authors": "Kuo-Chen, H., Wu, F.T., Okaya, D.A., Huang, B.S. & Liang, W.T.", 
"Pages": null, 
"No": 36, 
"Tag": "Kuo-Chen2009", 
"Link": null, 
"Year": 2009, 
"id": 155
}, 
{
"Comment": "Splitting method from Sileny and Plomerova (1996)", 
"DOI": "10.1016/j.tecto.2007.11.075", 
"Title": "SKS splitting measurements beneath Northern Apennines region: A case of oblique trench-retreat", 
"Journal": "Tectonophysics", 
"Authors": "Salimbeni, S., Pondrelli, S., Margheriti, L., Park, J. & Levin, V.", 
"Pages": "68-82", 
"No": 462, 
"Tag": "Salimbeni2008", 
"Link": null, 
"Year": 2008, 
"id": 156
}, 
{
"Comment": "Event lat, long, depth is in the Remark column", 
"DOI": "10.1029/2006GL028899.", 
"Title": "Seismic anisotropy reveals focused mantle flow around the Calabrian slab (Southern Italy)", 
"Journal": "Geophys. Res. Lett.", 
"Authors": "Baccheschi, P.; Margheriti, L.;Steckler, M.", 
"Pages": "L05302", 
"No": 37, 
"Tag": "Baccheschi2007", 
"Link": "http://www.earth-prints.org/handle/2122/2065", 
"Year": 2007, 
"id": 157
}, 
{
"Comment": "Individual splitting, obtained with the Sileny and Plomerova (1996) method.", 
"DOI": "10.1016/j.epsl.2006.1004.1023", 
"Title": "Seismic anisotropy beneath the northern Apennines (Italy): mantle flow or lithospheric fabric?", 
"Journal": "Earth Planet. Sci. Lett.", 
"Authors": "Plomerova, J., Margheriti, L., Park, J., Babuska, V., Pondrelli, S., Vecsey, L., Piccinini, D., Levin, V., Baccheschi, P. & Salimbeni, S.", 
"Pages": null, 
"No": 247, 
"Tag": "Plomerova2006", 
"Link": null, 
"Year": 2006, 
"id": 159
}, 
{
"Comment": "Splitting obtained by SplitLab (Wuestefeld et al., 2008)", 
"DOI": "10.1016/j.epsl.2009.09.039.", 
"Title": "Shear wave splitting and the pattern of mantle flow beneath eastern Oregon", 
"Journal": "Earth Planet. Sci. Lett.", 
"Authors": "Long, M.D., Gao, H., Klaus, A., Wagner, L.S., Fouch, M.J., James, D.E. & Humphreys, E.D.", 
"Pages": "359-369", 
"No": 288, 
"Tag": "Long2010", 
"Link": null, 
"Year": 2010, 
"id": 160
}, 
{
"Comment": "Individual SKS splitting, Silver and Chan, 1991", 
"DOI": "10.1111/j.1365-246X.2009.04352.x.", 
"Title": "Mantle flow in the Rivera-Cocos subduction zone", 
"Journal": "Geoph. J. Int.", 
"Authors": "Leon Soto, G., Ni, J.F., Grand, S.P., Sandvol, E., Valenzuela, R.W., Speziale, M.G., Gomez Gonzalez, J.M. & Dom\u00c3nguez Reyes, T.", 
"Pages": "1004-1012", 
"No": 179, 
"Tag": "Leon_Soto2010", 
"Link": null, 
"Year": 2009, 
"id": 161
}, 
{
"Comment": "Silver and Chan (1991)", 
"DOI": null, 
"Title": "Seismic anisotropy in the region of the Chile margin triple junction", 
"Journal": "J. S. Am. Earth Sci.", 
"Authors": "Murdie, R.E. & Russo, R.M.", 
"Pages": "261-270", 
"No": 12, 
"Tag": "Murdie1999", 
"Link": null, 
"Year": 1999, 
"id": 162
}, 
{
"Comment": "Teanby et al. (2004) and Silver and Chan (1991)", 
"DOI": "10.1016/j.pepi.2009.10.003. ", 
"Title": "Systematic variation in anisotropy beneath the mantle wedge in the Java-Sumatra subduction system from shear-wave splitting", 
"Journal": "Phys. Earth Planet. Int.", 
"Authors": "Hammond, J.O.S., Wookey, J., Kaneshima, S., Inoue, H., Yamashina, T. & Harjadi, P.", 
"Pages": "189-201", 
"No": 178, 
"Tag": "Hammond2010", 
"Link": null, 
"Year": 2010, 
"id": 163
}, 
{
"Comment": "Splitting obtained by SplitLab (Wuestefeld et al., 2007) ", 
"DOI": "10.1029/2009JB006438", 
"Title": "Upper mantle deformation beneath the North American-Pacific plate boundary in California from SKS splitting.", 
"Journal": "J. Geophys. Res.", 
"Authors": "Bonnin, M.; Barruol, G.; Bokelmann, G.H.R.", 
"Pages": null, 
"No": 115, 
"Tag": "Bonnin2010", 
"Link": null, 
"Year": 2010, 
"id": 164
}, 
{
"Comment": "Splitting measured with the method of Vecsey et al. (2008)", 
"DOI": "10.1016/j.tecto.2009.10.012", 
"Title": "Seismic anisotropy of the mantle lithosphere beneath the Swedish National Seismological Network (SNSN)", 
"Journal": "Tectonophysics", 
"Authors": "Eken, T., Plomerova, J., Roberts, R., Vecsey, L., Babuska, V., Shomali, H. & Bodvarsson, R.", 
"Pages": "251-258", 
"No": 480, 
"Tag": "Eken2010", 
"Link": null, 
"Year": 2010, 
"id": 165
}, 
{
"Comment": "Splitting measured with SplitLab (Wuestefeld et al., 2008)", 
"DOI": "10.1111/j.1365-246X.2010.04576.x", 
"Title": "Shear wave splitting along a nascent plate boundary: the North Anatolian Fault Zone", 
"Journal": "Geoph. J. Int.", 
"Authors": "Biryol, C.B., Zandt, G., Beck, S., Ozacar, A.A., Adiyaman, H.E. & Gans, C.R.", 
"Pages": null, 
"No": 9999, 
"Tag": "Biryol2010", 
"Link": null, 
"Year": 2010, 
"id": 166
}, 
{
"Comment": "Splitting measured with SplitLab (Wuestefeld et al., 2008)", 
"DOI": "10.1111/j.1365-246X.2010.04624.x", 
"Title": "Seismic anisotropy of the Victoria Land region, Antarctica", 
"Journal": "Geoph. J. Int.", 
"Authors": "Salimbeni, S., Pondrelli, S., Danesi, S. & Morelli, A. ", 
"Pages": "421-432", 
"No": 182, 
"Tag": "Salimbeni2010", 
"Link": null, 
"Year": 2010, 
"id": 167
}, 
{
"Comment": "Silver and Chan, 1991 - Wolfe and Silver 1998", 
"DOI": "10.1016/j.epsl.2010.04.017", 
"Title": "Shear-wave birefringence and current configuration of converging lithosphere under Tibet", 
"Journal": "Earth Planet. Sci. Lett.", 
"Authors": "Chen, W.P., Martin, M., Tseng, T.L., Nowack, R.L., Hung, S.H. & Huang, B.S.", 
"Pages": "297-304", 
"No": 295, 
"Tag": "Chen2010", 
"Link": null, 
"Year": 2010, 
"id": 168
}, 
{
"Comment": "Silver and Chan (1991)", 
"DOI": "10.1016/j.pepi.2010.05.002", 
"Title": "Shear wave anisotropy of the Godavari rift in the south Indian shield: Rift signature or APM related strain?", 
"Journal": "Phys. Earth Planet. Int.", 
"Authors": "Kumar, N., Kumar, M.R., Singh, A., Solomon, R.P. & Purnachandra, R.N.", 
"Pages": null, 
"No": null, 
"Tag": "Kumar2010", 
"Link": null, 
"Year": 2010, 
"id": 169
}, 
{
"Comment": "Silver and Chan (1991), eigenvalue minimization, error surfaces stacked in equally-weighted back-azimuthal swaths", 
"DOI": "10.1029/2006JB004861", 
"Title": "Lithospheric Variations Across the Superior Province, Ontario, Canada: Evidence from Tomography and Shear-Wave Splitting", 
"Journal": "J. Geophys. Res.", 
"Authors": "Frederiksen, A. W.; Miong, S.-K.; Darbyshire, F. A.; Eaton, D. W.; Rondenay, S.; Sol, S.", 
"Pages": null, 
"No": 112, 
"Tag": "Frederiksen2007", 
"Link": null, 
"Year": 2007, 
"id": 170
}, 
{
"Comment": null, 
"DOI": "10.1016/j.epsl.2010.07.015", 
"Title": "Seismic anisotropy beneath Cascadia and the Mendocino triple junction: Interaction of the subducting slab with mantle flow", 
"Journal": "Earth Planet. Sci. Lett.", 
"Authors": "Eakin, C. M.; Obrebski, M.; Allen, R. M.; Boyarko, D. C.; Brudzinski, M. R.; Porrit, R.", 
"Pages": "627-632", 
"No": 297, 
"Tag": "Eakin2010", 
"Link": null, 
"Year": 2010, 
"id": 171
}, 
{
"Comment": "Splitting measured with SplitLab (Wuestefeld et al., 2008), rotation-correlation method", 
"DOI": "10.1029/2010GL044201", 
"Title": "Mantle dynamics beneath the Gibraltar Arc (western Mediterranean) from shear-wave splitting measurements on a dense seismic array", 
"Journal": "Geophys. Res. Lett.", 
"Authors": "Diaz, J., Gallart, J., Villasenor, A., Mancilla, F., Pazos, A., Cordoba, D., Pulgar, J., Ibarra, P. and Harnafi, M.", 
"Pages": null, 
"No": "37(L18304)", 
"Tag": "Diaz2010", 
"Link": null, 
"Year": 2010, 
"id": 172
}, 
{
"Comment": "Silver and Chan (1991)", 
"DOI": "10.1016/j.tecto.2010.09.002 ", 
"Title": "Two anisotropic layers in central orogenic belt of North China Craton", 
"Journal": "Tectonophysics", 
"Authors": "Bai, L.; Kawakatsu, H.; Morita, Y.", 
"Pages": "138-148", 
"No": 494, 
"Tag": "BAI2010", 
"Link": "http://www.sciencedirect.com/science?_ob=ArticleURL&_udi=B6V72-511JR72-2&_user=99318&_coverDate=10%2F29%2F2010&_rdoc=1&_fmt=high&_orig=search&_origin=search&_sort=d&_docanchor=&view=c&_searchStrId=1611317792&_rerunOrigin=google&_acct=C000007678&_version=1&_urlVersion=0&_userid=99318&md5=c912e1741a83da10623cbc5d896b6a99&searchtype=a", 
"Year": 2010, 
"id": 173
}, 
{
"Comment": "Splitting measured with SplitLab (Wuestefeld et al., 2008), eigen value and rotation-correlation method", 
"DOI": "10.1016/j.pepi.2010.06.005", 
"Title": "Frequency-dependent shear wave splitting and heterogeneous anisotropic structure beneath the Gulf of California region", 
"Journal": "Phys. Earth Planet. Int.", 
"Authors": "Long, M.D.", 
"Pages": "59-72", 
"No": 182, 
"Tag": "long2010", 
"Link": null, 
"Year": 2010, 
"id": 174
}, 
{
"Comment": "Silver and Chan (1991)", 
"DOI": "10.1007/s11589-010-0754-2", 
"Title": "Mantle anisotropy across the southwestern boundary of the Ordos block, North China, Earthquake Science", 
"Journal": "Earthquake Science", 
"Authors": "Tang, Y., Chen, Y.J., Fu, Y.V., Wang, H., Zhou, S., Sandvol, E., Ning, J., Feng, Y. & Liu, M.", 
"Pages": "549-553", 
"No": 23, 
"Tag": "Tang2010", 
"Link": null, 
"Year": 2010, 
"id": 175
}, 
{
"Comment": "Silver and Chan (1991)", 
"DOI": "10.1007/s11430-010-4137-2", 
"Title": "Upper mantle anisotropy in the Ordos Block and its margins", 
"Journal": "Science China", 
"Authors": "Chang, L.J., Wang, C.Y. & Ding, Z.", 
"Pages": null, 
"No": null, 
"Tag": "Chang2010", 
"Link": null, 
"Year": 2010, 
"id": 176
}, 
{
"Comment": "Splitting measured with SplitLab (Wuestefeld et al., 2008), eigenvalue method", 
"DOI": "10.1016/j.epsl.2010.12.040", 
"Title": "Belt-parallel mantle flow beneath a halted continental collision: the Western Alps ", 
"Journal": "Earth Planet. Sci. Lett.", 
"Authors": "Barruol, G., Bonnin, M., Pedersen, H., Bokelmann, G.H.R. & Tiberi, C.", 
"Pages": "429-438", 
"No": 302, 
"Tag": "Barruol2011", 
"Link": null, 
"Year": 2011, 
"id": 177
}, 
{
"Comment": "Splitting measured with inversion method of Vinnik et al. (1989)", 
"DOI": null, 
"Title": "The upper mantle anisotropy in Yunnan area, China", 
"Journal": "Acta Seismologica Sinica", 
"Authors": "Ruan, A.G. & Wang, C.Y.", 
"Pages": "276-284", 
"No": 15, 
"Tag": "Ruan2002", 
"Link": null, 
"Year": 2002, 
"id": 178
}, 
{
"Comment": "Silver and Chan (1991)", 
"DOI": "10.1029/2008JB005887", 
"Title": "Constraints on mantle flow at the Caribbean - South American plate boundary inferred from shear wave splitting", 
"Journal": "J. Geophys. Res.", 
"Authors": "Growdon, M.A., Pavlis, G.L., Niu, F., Vernon, F.L. & Rendon, H.", 
"Pages": null, 
"No": 114, 
"Tag": "Growdon2009", 
"Link": null, 
"Year": 2009, 
"id": 179
}, 
{
"Comment": "Silver and Chan (1991) and  Wolfe and Silver (1998) for stacking", 
"DOI": "10.1029/2004GL021686. ", 
"Title": "Shear wave splitting observations in the Chinese Tianshan orogenic belt", 
"Journal": "Geophys. Res. Lett.", 
"Authors": "Chen, Y.P., Wang, L.S., Mi, N., Li, H., Yu, D.Y., Xu, M.J., Liu, S.W., Li, C. & Xu, Z.", 
"Pages": null, 
"No": 32, 
"Tag": "Chen2005", 
"Link": null, 
"Year": 2005, 
"id": 180
}, 
{
"Comment": "Silver and Chan (1991)", 
"DOI": "10.1130/g22713.1", 
"Title": "Combined plate motion and density-driven flow in the asthenosphere beneath Saudi Arabia: Evidence from shear-wave splitting and seismic anisotropy", 
"Journal": "Geology", 
"Authors": "Hansen, S., Schwartz, S., Ai-Amri, A. & Rodgers, A.", 
"Pages": "869-872", 
"No": 34, 
"Tag": "Hansen2006", 
"Link": null, 
"Year": 2006, 
"id": 181
}, 
{
"Comment": "Silver and Chan (1991)", 
"DOI": "10.1029/2010GL046464", 
"Title": "Short-scale variations of shear-wave splitting across the Dead Sea basin: Evidence for the effects of sedimentary fill", 
"Journal": "Geophys. Res. Lett.", 
"Authors": "Kaviani, A., Rumpker, G., Weber, M. & Asch, G.", 
"Pages": null, 
"No": 38, 
"Tag": "Kaviani2011", 
"Link": null, 
"Year": 2011, 
"id": 183
}, 
{
"Comment": "Splitting measured with SplitLab (Wuestefeld et al., 2008), eigen value and rotation-correlation method", 
"DOI": "10.1016/j.epsl.2011.01.026. ", 
"Title": "Seismic anisotropy of the Northeastern Tibetan Plateau from shear wave splitting analysis", 
"Journal": "Earth Planet. Sci. Lett.", 
"Authors": "Li, Y., Wu, Q., Zhang, F., Feng, Q. & Zhang, R.", 
"Pages": null, 
"No": "In press", 
"Tag": "Li2011", 
"Link": null, 
"Year": 2011, 
"id": 184
}, 
{
"Comment": "CrossCorrelation Method (Fukao, 1984)", 
"DOI": "10.1029/2010JB007884", 
"Title": "Shear wave anisotropy beneath the Aegean inferred from SKS splitting observations", 
"Journal": "J. Geophys. Res.", 
"Authors": "Evangelidis, C. P.; Liang, W.-T.; Melis, N. S.; Konstantinou, K. I.", 
"Pages": "B04314", 
"No": 116, 
"Tag": "Evangelidis2011", 
"Link": "http://www.agu.org/pubs/crossref/2011/2010JB007884.shtml", 
"Year": 2011, 
"id": 185
}, 
{
"Comment": "Silver and Chan (1991) and  Li and Niu (2010) for stacking", 
"DOI": "10.1016/j.epsl.2011.03.024", 
"Title": "Mantle flow beneath northwestern Venezuela: Seismic evidence for a deep origin of the M\u00c8rida Andes", 
"Journal": "Earth Planet. Sci. Lett.", 
"Authors": "Masy, J., Niu, F., Levander, A. & Schmitz, M.", 
"Pages": "396-404", 
"No": 305, 
"Tag": "Masy2011", 
"Link": null, 
"Year": 2011, 
"id": 186
}, 
{
"Comment": "Mean calculated by the Multi-channel method (Chevrot 2000) - Individual measurements calculated with Silver and Chan (1991) and SplitLab software (Wuestefeld, 2008) also available in the paper", 
"DOI": "10.1016/j.epsl.2011.03.038. ", 
"Title": "Seismic anisotropy and mantle dynamics beneath China", 
"Journal": "Earth Planet. Sci. Lett.", 
"Authors": "Huang, Z., Wang, L., Zhao, D., Mi, N. & Xu, M.", 
"Pages": null, 
"No": "in press", 
"Tag": "Huang2011", 
"Link": null, 
"Year": 2011, 
"id": 187
}, 
{
"Comment": "Splitting measured with splitting Intensity method (Chevrot, 2000)", 
"DOI": "10.1111/j.1365-246X.2011.05082.x", 
"Title": "High-resolution imaging of the deep anisotropic structure of the San Andreas fault system beneath southern California", 
"Journal": "Geoph. J. Int.", 
"Authors": "Monteiller, V. & Chevrot, S.", 
"Pages": "418-446", 
"No": 186, 
"Tag": "Monteiller2011", 
"Link": null, 
"Year": 2011, 
"id": 188
}, 
{
"Comment": "Rotation\u00f1correlation method (Bowman and Ando, 1987) and Silver and Chan (1991) technique in the SplitLab environment (W\u00b8stefeld et al., 2008)", 
"DOI": "10.1016/j.tecto.2011.05.013", 
"Title": "Upper mantle seismic anisotropy in the intra-continental Kachchh rift zone, Gujarat, India", 
"Journal": "Tectonophysics", 
"Authors": "Mandal, P.", 
"Pages": "81-92", 
"No": 509, 
"Tag": "Mandal2011", 
"Link": null, 
"Year": 2011, 
"id": 189
}, 
{
"Comment": "Silver and Chan (1991) and  Wolfe and Silver (1998) for stacking", 
"DOI": "10.1130/g24450a.1", 
"Title": "Evidence for mechanically coupled lithosphere in central Asia and resulting implications", 
"Journal": "Geology", 
"Authors": "Wang, C.Y., Flesch, L.M., Silver, P.G., Chang, L.J. & Chan, W.W. ", 
"Pages": "363-366", 
"No": 36, 
"Tag": "Wang2008", 
"Link": null, 
"Year": 2008, 
"id": 190
}
]
